Project 1: Wrangling, Exploration, Visualization
…
# IDs that appear in one dataset but not the other (and which
# those are)
anti_join(all, grad, by = "major_code")

## # A tibble: 0 x 11
## #  with 11 variables: major_code <int>, major <chr>, major_category <chr>,
## #   total <int>, employed <int>, employed_fulltime_yearround <int>,
## #   unemployed <int>, unemployment_rate <dbl>, p25th <dbl>, median <dbl>,
## #   p75th <dbl>

# IDs the datasets have common
inner_join(all, grad, by = "major_code")

## # A tibble: 173 x 32
##    major_code major.x major_category.x  total employed employed_fullti
##         <int> <chr>   <chr>             <int>    <int>            <int>
##  1       1100 Genera Agriculture & N 128148    90245            74078
##  2       1101 Agricu Agriculture & N  95326    76865            64240
##  3       1102 Agricu Agriculture & N  33955    26321            22810
##  4       1103 Animal Agriculture & N 103549    81177            64937
##  5       1104 Food S Agriculture & N  24280    17281            12722
##  6       1105 Plant  Agriculture & N  79409    63043            51077
##  7       1106 Soil S Agriculture & N   6586     4926             4042
##  8       1199 Miscel Agriculture & N   8549     6392             5074
##  9       1301 Enviro Biology & Life  106106    87602            65238
## 10       1302 Forest Agriculture & N  69447    48228            39613
## #  with 163 more rows, and 26 more variables: unemployed <int>,
## #   unemployment_rate <dbl>, p25th <dbl>, median <dbl>, p75th <dbl>,
## #   major.y <chr>, major_category.y <chr>, grad_total <int>,
## #   grad_sample_size <int>, grad_employed <int>,
## #   grad_employed_fulltime_yearround <int>, grad_unemployed <int>,
## #   grad_unemployment_rate <dbl>, grad_p25th <dbl>, grad_median <dbl>,
## #   grad_p75th <int>, nongrad_total <int>, nongrad_employed <int>,
## #   nongrad_employed_fulltime_yearround <int>, nongrad_unemployed <int>,
## #   nongrad_unemployment_rate <dbl>, nongrad_p25th <dbl>, nongrad_median <dbl>,
## #   nongrad_p75th <dbl>, grad_share <dbl>, grad_premium <dbl>

joined %>% pivot_wider(names_from = "major_category", values_from = "total") %>% 
    pivot_longer(29:44, names_to = "major_category", values_to = "total", 
        values_drop_na = T)

## # A tibble: 498 x 32
##    major_code major employed employed_fullti unemployed unemployment_ra p25th
##         <int> <chr>    <int>            <int>      <int>            <dbl> <dbl>
##  1       1100 Gene    90245            74078       2423           0.0261 34000
##  2       1100 Gene    90245            74078       2423           0.0261 34000
##  3       1100 Gene    90245            74078       2423           0.0261 34000
##  4       1101 Agri    76865            64240       2266           0.0286 36000
##  5       1101 Agri    76865            64240       2266           0.0286 36000
##  6       1101 Agri    76865            64240       2266           0.0286 36000
##  7       1102 Agri    26321            22810        821           0.0302 40000
##  8       1102 Agri    26321            22810        821           0.0302 40000
##  9       1102 Agri    26321            22810        821           0.0302 40000
## 10       1103 Anim    81177            64937       3619           0.0427 30000
## #  with 488 more rows, and 25 more variables: median <dbl>, p75th <dbl>,
## #   major.y <chr>, major_category.y <chr>, grad_total <int>,
## #   grad_sample_size <int>, grad_employed <int>,
## #   grad_employed_fulltime_yearround <int>, grad_unemployed <int>,
## #   grad_unemployment_rate <dbl>, grad_p25th <dbl>, grad_median <dbl>,
## #   grad_p75th <int>, nongrad_total <int>, nongrad_employed <int>,
## #   nongrad_employed_fulltime_yearround <int>, nongrad_unemployed <int>,
## #   nongrad_unemployment_rate <dbl>, nongrad_p25th <dbl>, nongrad_median <dbl>,
## #   nongrad_p75th <dbl>, Arts <int>, Business <int>, major_category <chr>,
…
To demonstrate the use of pivot_longer and pivot_wider, I untidyed the data by untidying the major_category column and the total column. I then chose all the columns from 29-44 that had the new major categories and pivoted it longer. I had to remove the NAs because for each major there would be 1 real observation and 15 dummy ones that had NA for the total column of the major category it is NOT in.

Wrangling

joined <- joined %>% select(!contains(".y"))
joined %>% arrange(desc(median)) %>% group_by(major_category) %>% 
    slice(1:4)

## # A tibble: 61 x 30
## # Groups:   major_category [16]
##    major_code major major_category  total employed employed_fullti unemployed
##         <int> <chr> <chr>           <int>    <int>            <int>      <int>
##  1       1102 Agri Agriculture &  33955    26321            22810        821
##  2       1106 Soil Agriculture &   6586     4926             4042        264
##  3       1104 Food Agriculture &  24280    17281            12722        894
##  4       1302 Fore Agriculture &  69447    48228            39613       2144
##  5       6005 Film Arts           133508   107651            69303      10080
##  6       6004 Comm Arts           504657   379980           266671      30330
##  7       6000 Fine Arts           571961   386961           256747      29912
##  8       6002 Music Arts           276262   192704           116142      11155
##  9       3606 Micr Biology & Lif  68885    45422            33990       2435
## 10       3607 Phar Biology & Lif   5015     3481             2579         57
## #  with 51 more rows, and 23 more variables: unemployment_rate <dbl>,
## #   p25th <dbl>, median <dbl>, p75th <dbl>, grad_total <int>,
## #   grad_sample_size <int>, grad_employed <int>,
## #   grad_employed_fulltime_yearround <int>, grad_unemployed <int>,
## #   grad_unemployment_rate <dbl>, grad_p25th <dbl>, grad_median <dbl>,
## #   grad_p75th <int>, nongrad_total <int>, nongrad_employed <int>,
## #   nongrad_employed_fulltime_yearround <int>, nongrad_unemployed <int>,
## #   nongrad_unemployment_rate <dbl>, nongrad_p25th <dbl>, nongrad_median <dbl>,
## #   nongrad_p75th <dbl>, grad_share <dbl>, grad_premium <dbl>

joined %>% mutate(diffp75 = grad_p75th - p75th, diffmed = grad_median - 
    median, diffp25 = grad_p25th - p25th) %>% arrange(desc(diffmed))

## # A tibble: 173 x 33
##    major_code major major_category  total employed employed_fullti unemployed
##         <int> <chr> <chr>           <int>    <int>            <int>      <int>
##  1       6106 Heal Health          32514    19009            13147       1431
##  2       3609 Zool Biology & Lif  55395    35714            26152       1815
##  3       3607 Phar Biology & Lif   5015     3481             2579         57
##  4       3600 Biol Biology & Lif 839454   583079           422788      36757
##  5       3601 Bioc Biology & Lif  75322    52594            37103       4056
##  6       4006 Cogn Biology & Lif   6898     5527             3639        284
##  7       5003 Chem Physical Scie 308062   198075           153308      11468
##  8       3603 Mole Biology & Lif  28197    20221            13366       1303
##  9       3608 Phys Biology & Lif  43984    31394            20207       1692
## 10       6202 Actu Business         9763     7846             6880        466
## #  with 163 more rows, and 26 more variables: unemployment_rate <dbl>,
## #   p25th <dbl>, median <dbl>, p75th <dbl>, grad_total <int>,
## #   grad_sample_size <int>, grad_employed <int>,
## #   grad_employed_fulltime_yearround <int>, grad_unemployed <int>,
## #   grad_unemployment_rate <dbl>, grad_p25th <dbl>, grad_median <dbl>,
## #   grad_p75th <int>, nongrad_total <int>, nongrad_employed <int>,
## #   nongrad_employed_fulltime_yearround <int>, nongrad_unemployed <int>,
## #   nongrad_unemployment_rate <dbl>, nongrad_p25th <dbl>, nongrad_median <dbl>,
## #   nongrad_p75th <dbl>, grad_share <dbl>, grad_premium <dbl>, diffp75 <dbl>,
…
